Draft Quarto document
…
lipidomics |>
  count(code, metabolite) |>
  filter(n > 1)

# A tibble: 0 × 3
# ℹ 3 variables: code <chr>, metabolite <chr>, n <int>

Making the values to means

lipidomics |>
  group_by(pick(-value)) |> # grupper på alt andet end value
  summarise(value = mean(value), .groups = "keep") |> # summér value som mean af værdierne og behold kolonnerne i group_by
  ungroup()

# A tibble: 432 × 6
   code   gender   age class metabolite                value
   <chr>  <chr>  <dbl> <chr> <chr>                     <dbl>
 1 ERI109 M         25 CT    CDCl3 (solvent)          166.  
 2 ERI109 M         25 CT    Cholesterol               18.6 
 3 ERI109 M         25 CT    FA -CH2CH2COO-            31.6 
 4 ERI109 M         25 CT    Lipid -CH2-              587.  
 5 ERI109 M         25 CT    Lipid CH3- 1              44.1 
 6 ERI109 M         25 CT    Lipid CH3- 2             147.  
 7 ERI109 M         25 CT    MUFA+PUFA                 50.6 
 8 ERI109 M         25 CT    PUFA                      29.0 
 9 ERI109 M         25 CT    Phosphatidycholine        41.7 
10 ERI109 M         25 CT    Phosphatidylethanolamine   6.78
# ℹ 422 more rows

cleaning function

# using the clean function to get the means

clean(lipidomics)

# A tibble: 432 × 6
   code   gender   age class metabolite                value
   <chr>  <chr>  <dbl> <chr> <chr>                     <dbl>
 1 ERI109 M         25 CT    CDCl3 (solvent)          166.  
 2 ERI109 M         25 CT    Cholesterol               18.6 
 3 ERI109 M         25 CT    FA -CH2CH2COO-            31.6 
 4 ERI109 M         25 CT    Lipid -CH2-              587.  
 5 ERI109 M         25 CT    Lipid CH3- 1              44.1 
 6 ERI109 M         25 CT    Lipid CH3- 2             147.  
 7 ERI109 M         25 CT    MUFA+PUFA                 50.6 
 8 ERI109 M         25 CT    PUFA                      29.0 
 9 ERI109 M         25 CT    Phosphatidycholine        41.7 
10 ERI109 M         25 CT    Phosphatidylethanolamine   6.78
# ℹ 422 more rows

c

forskel efte rat have kørt scale() function = z-score normalisering. Gns bliver 0, og en enheds forskel er 1 SD væk fra mean

lipidomics |>
  filter(metabolite == "Cholesterol") |>
  mutate(
    class = as.factor(class),
    value = scale(value) # mean centers meaning mean = 0 and 1 unit change = 1 SD dif.
  )

# A tibble: 36 × 6
   code   gender   age class metabolite  value[,1]
   <chr>  <chr>  <dbl> <fct> <chr>           <dbl>
 1 ERI109 M         25 CT    Cholesterol  0.000164
 2 ERI111 M         39 CT    Cholesterol  0.405   
 3 ERI140 M         25 T1D   Cholesterol -0.912   
 4 ERI142 M         38 T1D   Cholesterol -0.617   
 5 ERI143 M         43 T1D   Cholesterol -1.85    
 6 ERI144 M         35 T1D   Cholesterol  0.0187  
 7 ERI145 M         36 T1D   Cholesterol -0.351   
 8 ERI146 M         38 T1D   Cholesterol -0.133   
 9 ERI147 W         37 T1D   Cholesterol -0.518   
10 ERI149 W         35 T1D   Cholesterol -0.651   
# ℹ 26 more rows
…
